sim/dump.vcd
$date
	Sat Jun 07 00:03:23 2025
$end
$version
	Icarus Verilog
$end
$timescale
	1ps
$end
$scope module counter_tb $end
$var wire 1 ! wready $end
$var wire 1 " rvalid $end
$var wire 2 # rresp [1:0] $end
$var wire 32 $ rdata [31:0] $end
$var wire 1 % bvalid $end
$var wire 2 & bresp [1:0] $end
$var wire 1 ' awready $end
$var wire 1 ( arready $end
$var reg 32 ) araddr [31:0] $end
$var reg 1 * arvalid $end
$var reg 32 + awaddr [31:0] $end
$var reg 1 , awvalid $end
$var reg 1 - bready $end
$var reg 1 . clk $end
$var reg 1 / rready $end
$var reg 1 0 rst_n $end
$var reg 32 1 wdata [31:0] $end
$var reg 4 2 wstrb [3:0] $end
$var reg 1 3 wvalid $end
$scope module dut $end
$var wire 32 4 araddr [31:0] $end
$var wire 1 * arvalid $end
$var wire 32 5 awaddr [31:0] $end
$var wire 1 , awvalid $end
$var wire 1 - bready $end
$var wire 1 . clk $end
$var wire 1 / rready $end
$var wire 1 0 rst_n $end
$var wire 32 6 wdata [31:0] $end
$var wire 4 7 wstrb [3:0] $end
$var wire 1 3 wvalid $end
$var reg 1 ( arready $end
$var reg 1 ' awready $end
$var reg 2 8 bresp [1:0] $end
$var reg 1 % bvalid $end
$var reg 32 9 count [31:0] $end
$var reg 1 : counting $end
$var reg 32 ; ctrl [31:0] $end
$var reg 1 < ctrl_prev $end
$var reg 32 = init_val [31:0] $end
$var reg 32 > rd_addr_reg [31:0] $end
$var reg 2 ? rd_state [1:0] $end
$var reg 32 @ rdata [31:0] $end
$var reg 2 A rresp [1:0] $end
$var reg 1 " rvalid $end
$var reg 32 B wr_addr_reg [31:0] $end
$var reg 2 C wr_state [1:0] $end
$var reg 1 ! wready $end
$upscope $end
$scope task axi_read $end
$var reg 32 D addr [31:0] $end
$upscope $end
$scope task axi_write $end
$var reg 32 E addr [31:0] $end
$var reg 32 F data [31:0] $end
$upscope $end
$upscope $end
$enddefinitions $end
#0
$dumpvars
bx F
bx E
bx D
b0 C
b0 B
b0 A
b0 @
b0 ?
b0 >
b0 =
0<
b0 ;
0:
b0 9
b0 8
b1111 7
b0 6
b0 5
b0 4
03
b1111 2
b0 1
00
0/
0.
0-
0,
b0 +
0*
b0 )
0(
0'
b0 &
0%
b0 $
b0 #
0"
0!
$end
#5000
1.
#10000
0.
#15000
1.
#20000
0.
#25000
1.
#30000
0.
#35000
1.
#40000
0.
#45000
1(
1!
1'
10
1.
#50000
0.
#55000
1.
#60000
0.
#65000
b1000000000000 F
b1000 E
1.
#70000
0.
#75000
1-
13
b1000000000000 1
b1000000000000 6
1,
b1000 +
b1000 5
1.
#80000
0.
#85000
1%
0!
b10 C
b1000000000000 =
0'
b1000 B
1.
#90000
0.
#95000
b0 C
0%
0-
03
0,
b1000 D
1.
#100000
0.
#105000
1!
1'
1/
1*
b1000 )
b1000 4
1.
#110000
0.
#115000
b1 ?
b1000000000000 $
b1000000000000 @
1"
0(
b1000 >
1.
#120000
0.
#125000
b0 ?
0"
0/
0*
b1 F
b0 E
1.
#130000
0.
#135000
1(
1-
13
b1 1
b1 6
1,
b0 +
b0 5
1.
#140000
0.
#145000
1%
0!
b10 C
b1 ;
0'
b0 B
1.
#150000
0.
#155000
b0 C
0%
1:
b1000000000000 9
1<
0-
03
0,
1.
#160000
0.
#165000
b1000000000001 9
1!
1'
1.
#170000
0.
#175000
b1000000000010 9
1.
#180000
0.
#185000
b1000000000011 9
1.
#190000
0.
#195000
b1000000000100 9
1.
#200000
0.
#205000
b1000000000101 9
b100 D
1.
#210000
0.
#215000
b1000000000110 9
1/
1*
b100 )
b100 4
1.
#220000
0.
#225000
b1 ?
b1000000000110 $
b1000000000110 @
1"
0(
b100 >
b1000000000111 9
1.
#230000
0.
#235000
b1000000001000 9
b0 ?
0"
0/
0*
1.
#240000
0.
#245000
1(
b1000000001001 9
1.
#250000
0.
#255000
b1000000001010 9
1.
#260000
0.
#265000
b1000000001011 9
1.
#270000
0.
#275000
b1000000001100 9
1.
#280000
0.
#285000
b1000000001101 9
1.
#290000
0.
#295000
b1000000001110 9
1/
1*
1.
#300000
0.
#305000
b1 ?
b1000000001110 $
b1000000001110 @
1"
0(
b1000000001111 9
1.
#310000
0.
#315000
b1000000010000 9
b0 ?
0"
0/
0*
b0 F
1.
#320000
0.
#325000
1(
b1000000010001 9
1-
13
b0 1
b0 6
1,
1.
#330000
0.
#335000
1%
0!
b10 C
b0 ;
0'
b1000000010010 9
1.
#340000
0.
#345000
0:
0<
b0 C
0%
0-
03
0,
1.
#350000
0.
#355000
1!
1'
1.
#360000
0.
#365000
1.
#370000
0.
#375000
1.
#380000
0.
#385000
1.
#390000
0.
#395000
1.
#400000
0.
#405000
1/
1*
1.
#410000
0.
#415000
b1 ?
b1000000010010 $
b1000000010010 @
1"
0(
1.
#420000
0.
#425000
b0 ?
0"
0/
0*
1.
#430000
0.
#435000
1(
1.
#440000
0.
#445000
1.
#450000
0.
#455000
1.
#460000
0.
#465000
1.
#470000
0.
#475000
1.
#480000
0.
#485000
1/
1*
1.
#490000
0.
#495000
b1 ?
1"
0(
1.
#500000
0.
#505000
b0 ?
0"
0/
0*
b1 F
1.
#510000
0.
#515000
1(
1-
13
b1 1
b1 6
1,
1.
#520000
0.
#525000
1%
0!
b10 C
b1 ;
0'
1.
#530000
0.
#535000
b0 C
0%
1:
b1000000000000 9
1<
0-
03
0,
1.
#540000
0.
#545000
b1000000000001 9
1!
1'
1.
#550000
0.
#555000
b1000000000010 9
1.
#560000
0.
#565000
b1000000000011 9
1.
#570000
0.
#575000
b1000000000100 9
1/
1*
1.
#580000
0.
#585000
b1 ?
b1000000000100 $
b1000000000100 @
1"
0(
b1000000000101 9
1.
#590000
0.
#595000
b1000000000110 9
b0 ?
0"
0/
0*
b10000 D
1.
#600000
0.
#605000
1(
b1000000000111 9
1/
1*
b10000 )
b10000 4
1.
#610000
0.
#615000
b1000000001000 9
b1 ?
b10 #
b10 A
b0 $
b0 @
1"
0(
b10000 >
1.
#620000
0.
#625000
b0 ?
0"
b1000000001001 9
0/
0*
1.
#630000
0.
#635000
b1000000001010 9
1(
1.
#640000
0.
#645000
b1000000001011 9
1.
#650000
0.
#655000
b1000000001100 9
1.
#660000
0.
#665000
b1000000001101 9
1.
#670000
0.
#675000
b1000000001110 9
1.
